<?xml version="1.0" encoding="UTF-8"?>
<svg xmlns="http://www.w3.org/2000/svg" xmlns:xlink="http://www.w3.org/1999/xlink" viewBox="0 0 7.924 8.638" version="1.2">
<defs>
<g>
<symbol overflow="visible" id="glyph0-0">
<path style="stroke:none;" d=""/>
</symbol>
<symbol overflow="visible" id="glyph0-1">
<path style="stroke:none;" d="M 6.484375 -5.1875 C 6.484375 -5.25 6.4375 -5.40625 6.28125 -5.40625 C 6.265625 -5.40625 5.5625 -5.234375 5.1875 -4.890625 C 5.015625 -5.078125 4.609375 -5.40625 3.90625 -5.40625 C 1.828125 -5.40625 0.53125 -3.515625 0.53125 -1.875 C 0.53125 -0.40625 1.640625 0.09375 2.625 0.09375 C 3.203125 0.09375 3.6875 -0.125 3.9375 -0.28125 L 3.484375 1.53125 C 3.4375 1.703125 3.421875 1.71875 3.328125 1.734375 C 3.203125 1.75 3.015625 1.75 2.875 1.75 C 2.671875 1.75 2.609375 1.75 2.546875 1.828125 C 2.484375 1.90625 2.453125 2.09375 2.453125 2.109375 C 2.453125 2.171875 2.5 2.3125 2.6875 2.3125 C 3.09375 2.3125 3.53125 2.28125 3.953125 2.28125 C 4.40625 2.28125 4.859375 2.3125 5.28125 2.3125 C 5.359375 2.3125 5.59375 2.3125 5.59375 1.96875 C 5.59375 1.765625 5.390625 1.75 5.28125 1.75 C 5.109375 1.75 4.921875 1.75 4.765625 1.75 Z M 4.1875 -1.28125 C 4.125 -1.078125 4.125 -1.046875 4 -0.9375 C 3.609375 -0.546875 3.109375 -0.328125 2.6875 -0.328125 C 1.953125 -0.328125 1.890625 -0.984375 1.890625 -1.25 C 1.890625 -1.859375 2.296875 -3.328125 2.484375 -3.796875 C 2.859375 -4.671875 3.4375 -4.96875 3.9375 -4.96875 C 4.640625 -4.96875 4.921875 -4.40625 4.921875 -4.28125 C 4.921875 -4.234375 4.90625 -4.140625 4.90625 -4.109375 Z M 4.1875 -1.28125 "/>
</symbol>
</g>
<clipPath id="clip1">
  <path d="M 1 0 L 7 0 L 7 8.636719 L 1 8.636719 Z M 1 0 "/>
</clipPath>
</defs>
<g id="surface1">
<g clip-path="url(#clip1)" clip-rule="nonzero">
<g style="fill:rgb(0%,0%,0%);fill-opacity:1;">
  <use xlink:href="#glyph0-1" x="0.5" y="5.813"/>
</g>
</g>
</g>
</svg>
