<?xml version="1.0" encoding="UTF-8"?>
<svg xmlns="http://www.w3.org/2000/svg" xmlns:xlink="http://www.w3.org/1999/xlink" viewBox="0 0 30.121 6.776" version="1.2">
<defs>
<g>
<symbol overflow="visible" id="glyph0-0">
<path style="stroke:none;" d=""/>
</symbol>
<symbol overflow="visible" id="glyph0-1">
<path style="stroke:none;" d="M 1.484375 -4.859375 C 1.484375 -4.6875 1.546875 -4.46875 1.703125 -4.359375 C 1.203125 -3.59375 0.546875 -2.921875 -0.28125 -2.265625 C -0.359375 -2.1875 -0.375 -2.078125 -0.375 -1.609375 C -0.375 -1.296875 -0.375 -1.140625 -0.265625 -1.140625 C -0.171875 -1.140625 1.875 -2.703125 2.46875 -3.46875 C 2.703125 -3.734375 2.78125 -3.828125 3.09375 -3.828125 C 3.25 -3.828125 3.390625 -3.8125 3.390625 -3.71875 C 3.390625 -3.5625 1.84375 -1.15625 1.84375 -0.65625 C 1.84375 -0.171875 2.109375 0.078125 2.8125 0.078125 C 3.484375 0.078125 4.890625 -0.59375 5.765625 -1.265625 C 5.90625 -1.359375 5.9375 -1.5 5.9375 -1.796875 C 5.9375 -2.203125 5.828125 -2.375 5.734375 -2.375 C 5.65625 -2.375 5.5625 -2.265625 5.34375 -2.078125 C 5.015625 -1.828125 3.984375 -1.234375 3.828125 -1.234375 C 3.734375 -1.234375 3.625 -1.265625 3.625 -1.375 C 3.625 -1.390625 3.671875 -1.46875 3.734375 -1.578125 C 4.453125 -2.8125 5.015625 -3.65625 5.015625 -4.0625 C 5.015625 -4.53125 4.609375 -4.8125 4.078125 -4.8125 C 3.796875 -4.8125 3.5 -4.734375 3.328125 -4.734375 C 3.1875 -4.734375 3.15625 -5.078125 3.15625 -5.1875 C 3.15625 -5.375 2.859375 -5.734375 2.34375 -5.734375 C 1.8125 -5.734375 1.484375 -5.3125 1.484375 -4.859375 Z M 1.484375 -4.859375 "/>
</symbol>
<symbol overflow="visible" id="glyph1-0">
<path style="stroke:none;" d=""/>
</symbol>
<symbol overflow="visible" id="glyph1-1">
<path style="stroke:none;" d="M 8.625 -5.40625 C 8.625 -5.65625 8.546875 -5.765625 8.46875 -5.765625 C 8.421875 -5.765625 8.3125 -5.71875 8.296875 -5.4375 C 8.25 -4.609375 7.40625 -4.125 6.640625 -4.125 C 5.9375 -4.125 5.34375 -4.5 4.71875 -4.90625 C 4.078125 -5.34375 3.4375 -5.765625 2.65625 -5.765625 C 1.546875 -5.765625 0.65625 -4.921875 0.65625 -3.828125 C 0.65625 -3.5625 0.75 -3.46875 0.828125 -3.46875 C 0.9375 -3.46875 0.984375 -3.6875 0.984375 -3.734375 C 1.046875 -4.75 2.03125 -5.109375 2.65625 -5.109375 C 3.34375 -5.109375 3.9375 -4.734375 4.5625 -4.3125 C 5.21875 -3.890625 5.859375 -3.453125 6.640625 -3.453125 C 7.75 -3.453125 8.625 -4.296875 8.625 -5.40625 Z M 8.625 -2.609375 C 8.625 -2.953125 8.484375 -2.96875 8.46875 -2.96875 C 8.421875 -2.96875 8.3125 -2.921875 8.296875 -2.65625 C 8.25 -1.828125 7.40625 -1.34375 6.640625 -1.34375 C 5.9375 -1.34375 5.34375 -1.703125 4.71875 -2.125 C 4.078125 -2.5625 3.4375 -2.984375 2.65625 -2.984375 C 1.546875 -2.984375 0.65625 -2.140625 0.65625 -1.046875 C 0.65625 -0.78125 0.75 -0.6875 0.828125 -0.6875 C 0.9375 -0.6875 0.984375 -0.90625 0.984375 -0.953125 C 1.046875 -1.953125 2.03125 -2.3125 2.65625 -2.3125 C 3.34375 -2.3125 3.9375 -1.953125 4.5625 -1.53125 C 5.21875 -1.09375 5.859375 -0.671875 6.640625 -0.671875 C 7.765625 -0.671875 8.625 -1.546875 8.625 -2.609375 Z M 8.625 -2.609375 "/>
</symbol>
<symbol overflow="visible" id="glyph2-0">
<path style="stroke:none;" d=""/>
</symbol>
<symbol overflow="visible" id="glyph2-1">
<path style="stroke:none;" d="M 5.3125 -4.8125 C 4.65625 -4.671875 4.578125 -4.09375 4.578125 -3.96875 C 4.578125 -3.703125 4.78125 -3.421875 5.171875 -3.421875 C 5.578125 -3.421875 6.03125 -3.75 6.03125 -4.359375 C 6.03125 -4.90625 5.609375 -5.40625 4.859375 -5.40625 C 4.203125 -5.40625 3.640625 -5.0625 3.28125 -4.6875 C 2.984375 -5.234375 2.3125 -5.40625 1.875 -5.40625 C 1.4375 -5.40625 1.09375 -5.15625 0.84375 -4.71875 C 0.546875 -4.25 0.375 -3.609375 0.375 -3.53125 C 0.375 -3.375 0.5625 -3.375 0.671875 -3.375 C 0.796875 -3.375 0.84375 -3.375 0.90625 -3.4375 C 0.9375 -3.453125 0.9375 -3.484375 1 -3.78125 C 1.234375 -4.6875 1.5 -4.96875 1.8125 -4.96875 C 2 -4.96875 2.09375 -4.859375 2.09375 -4.546875 C 2.09375 -4.328125 2.0625 -4.203125 1.921875 -3.640625 C 1.859375 -3.4375 1.671875 -2.640625 1.59375 -2.34375 C 1.546875 -2.109375 1.40625 -1.578125 1.34375 -1.359375 C 1.28125 -1.046875 1.140625 -0.515625 1.140625 -0.4375 C 1.140625 -0.171875 1.328125 0.09375 1.703125 0.09375 C 1.9375 0.09375 2.359375 -0.046875 2.484375 -0.53125 C 2.5 -0.578125 3.3125 -3.828125 3.328125 -3.890625 C 3.375 -4.078125 3.375 -4.09375 3.53125 -4.28125 C 3.796875 -4.625 4.25 -4.96875 4.84375 -4.96875 C 5.140625 -4.96875 5.265625 -4.84375 5.3125 -4.8125 Z M 5.3125 -4.8125 "/>
</symbol>
</g>
<clipPath id="clip1">
  <path d="M 0.5 0.515625 L 6.980469 0.515625 L 6.980469 6.277344 L 0.5 6.277344 Z M 0.5 0.515625 "/>
</clipPath>
<clipPath id="clip3">
  <path d="M 1 0.515625 L 6.980469 0.515625 L 6.980469 6.277344 L 1 6.277344 Z M 1 0.515625 "/>
</clipPath>
<clipPath id="clip2">
  <rect x="0" y="0" width="7" height="7"/>
</clipPath>
<g id="surface5" clip-path="url(#clip2)">
<g clip-path="url(#clip3)" clip-rule="nonzero">
<g style="fill:rgb(13.729858%,12.159729%,12.548828%);fill-opacity:1;">
  <use xlink:href="#glyph0-1" x="1.565781" y="6.1608"/>
</g>
</g>
</g>
<clipPath id="clip4">
  <path d="M 23 0 L 29 0 L 29 6.777344 L 23 6.777344 Z M 23 0 "/>
</clipPath>
</defs>
<g id="surface1">
<g clip-path="url(#clip1)" clip-rule="nonzero">
<use xlink:href="#surface5" transform="matrix(1,0,0,1,-0.000000000000000056,0)"/>
</g>
<g style="fill:rgb(0%,0%,0%);fill-opacity:1;">
  <use xlink:href="#glyph1-1" x="10.299" y="6.276"/>
</g>
<g clip-path="url(#clip4)" clip-rule="nonzero">
<g style="fill:rgb(0%,0%,0%);fill-opacity:1;">
  <use xlink:href="#glyph2-1" x="22.919" y="6.276"/>
</g>
</g>
</g>
</svg>
