[
{
"fs_vec": [
7.230541949894036e-07,
0.00010991764788645697,
0.0
],
"n_fs": 194,
"n_ss": 185,
"name": "q0a0",
"parent_data_shape": [
1480,
1552
],
"parent_data_slice": [
[
0,
185,
null
],
[
0,
194,
null
]
],
"ss_vec": [
-0.00010991764788645697,
7.230541949894036e-07,
0.0
],
"t_vec": [
0.04849739269603144,
-0.002730755194822325,
0.0
]
},
{
"fs_vec": [
7.230541949894036e-07,
0.00010991764788645697,
0.0
],
"n_fs": 194,
"n_ss": 185,
"name": "q0a1",
"parent_data_shape": [
1480,
1552
],
"parent_data_slice": [
[
0,
185,
null
],
[
194,
388,
null
]
],
"ss_vec": [
-0.00010991764788645697,
7.230541949894036e-07,
0.0
],
"t_vec": [
0.04863984910173322,
0.018923069144118395,
0.0
]
},
{
"fs_vec": [
5.279460776123603e-07,
0.00010991885700718436,
0.0
],
"n_fs": 194,
"n_ss": 185,
"name": "q0a2",
"parent_data_shape": [
1480,
1552
],
"parent_data_slice": [
[
185,
370,
null
],
[
0,
194,
null
]
],
"ss_vec": [
-0.00010991885700718436,
5.279460776123603e-07,
0.0
],
"t_vec": [
0.025813408489346545,
-0.0026628136019486628,
0.0
]
},
{
"fs_vec": [
5.279460776123603e-07,
0.00010991885700718436,
0.0
],
"n_fs": 194,
"n_ss": 185,
"name": "q0a3",
"parent_data_shape": [
1480,
1552
],
"parent_data_slice": [
[
185,
370,
null
],
[
194,
388,
null
]
],
"ss_vec": [
-0.00010991885700718436,
5.279460776123603e-07,
0.0
],
"t_vec": [
0.025917392871903547,
0.0189912195851177,
0.0
]
},
{
"fs_vec": [
-0.00010991885700718436,
5.38278563828384e-07,
0.0
],
"n_fs": 194,
"n_ss": 185,
"name": "q0a4",
"parent_data_shape": [
1480,
1552
],
"parent_data_slice": [
[
370,
555,
null
],
[
0,
194,
null
]
],
"ss_vec": [
-5.38278563828384e-07,
-0.00010991885700718436,
0.0
],
"t_vec": [
0.0953042147750156,
0.04046190610188271,
0.0
]
},
{
"fs_vec": [
-0.00010991885700718436,
5.38278563828384e-07,
0.0
],
"n_fs": 194,
"n_ss": 185,
"name": "q0a5",
"parent_data_shape": [
1480,
1552
],
"parent_data_slice": [
[
370,
555,
null
],
[
194,
388,
null
]
],
"ss_vec": [
-5.38278563828384e-07,
-0.00010991885700718436,
0.0
],
"t_vec": [
0.07365018158794924,
0.04056786904563001,
0.0
]
},
{
"fs_vec": [
-0.00010991929668744888,
4.0406616308620365e-07,
0.0
],
"n_fs": 194,
"n_ss": 185,
"name": "q0a6",
"parent_data_shape": [
1480,
1552
],
"parent_data_slice": [
[
555,
740,
null
],
[
0,
194,
null
]
],
"ss_vec": [
-4.0406616308620365e-07,
-0.00010991929668744888,
0.0
],
"t_vec": [
0.09520001055232634,
0.017827166084823116,
0.0
]
},
{
"fs_vec": [
-0.00010991929668744888,
4.0406616308620365e-07,
0.0
],
"n_fs": 194,
"n_ss": 185,
"name": "q0a7",
"parent_data_shape": [
1480,
1552
],
"parent_data_slice": [
[
555,
740,
null
],
[
194,
388,
null
]
],
"ss_vec": [
-4.0406616308620365e-07,
-0.00010991929668744888,
0.0
],
"t_vec": [
0.07354597736525997,
0.017906748212699723,
0.0
]
},
{
"fs_vec": [
-6.811746497946692e-07,
-0.00010991797764665535,
0.0
],
"n_fs": 194,
"n_ss": 185,
"name": "q0a8",
"parent_data_shape": [
1480,
1552
],
"parent_data_slice": [
[
740,
925,
null
],
[
0,
194,
null
]
],
"ss_vec": [
0.00010991797764665535,
-6.811746497946692e-07,
0.0
],
"t_vec": [
0.05242923346142685,
0.08709439495598799,
0.0
]
},
{
"fs_vec": [
-6.811746497946692e-07,
-0.00010991797764665535,
0.0
],
"n_fs": 194,
"n_ss": 185,
"name": "q0a9",
"parent_data_shape": [
1480,
1552
],
"parent_data_slice": [
[
740,
925,
null
],
[
194,
388,
null
]
],
"ss_vec": [
0.00010991797764665535,
-6.811746497946692e-07,
0.0
],
"t_vec": [
0.05229502106068466,
0.06544047168898776,
0.0
]
},
{
"fs_vec": [
-7.849391922194179e-07,
-0.00010991731812625857,
0.0
],
"n_fs": 194,
"n_ss": 185,
"name": "q0a10",
"parent_data_shape": [
1480,
1552
],
"parent_data_slice": [
[
925,
1110,
null
],
[
0,
194,
null
]
],
"ss_vec": [
0.00010991731812625857,
-7.849391922194179e-07,
0.0
],
"t_vec": [
0.0754426481062971,
0.087103848081675,
0.0
]
},
{
"fs_vec": [
-7.849391922194179e-07,
-0.00010991731812625857,
0.0
],
"n_fs": 194,
"n_ss": 185,
"name": "q0a11",
"parent_data_shape": [
1480,
1552
],
"parent_data_slice": [
[
925,
1110,
null
],
[
194,
388,
null
]
],
"ss_vec": [
0.00010991731812625857,
-7.849391922194179e-07,
0.0
],
"t_vec": [
0.07528799057325512,
0.06545014465480702,
0.0
]
},
{
"fs_vec": [
-0.00010992006612791177,
-1.5542697350486723e-07,
0.0
],
"n_fs": 194,
"n_ss": 185,
"name": "q0a12",
"parent_data_shape": [
1480,
1552
],
"parent_data_slice": [
[
1110,
1295,
null
],
[
0,
194,
null
]
],
"ss_vec": [
1.5542697350486723e-07,
-0.00010992006612791177,
0.0
],
"t_vec": [
0.048961804975421866,
0.08513616897791926,
0.0
]
},
{
"fs_vec": [
-0.00010992006612791177,
-1.5542697350486723e-07,
0.0
],
"n_fs": 194,
"n_ss": 185,
"name": "q0a13",
"parent_data_shape": [
1480,
1552
],
"parent_data_slice": [
[
1110,
1295,
null
],
[
194,
388,
null
]
],
"ss_vec": [
1.5542697350486723e-07,
-0.00010992006612791177,
0.0
],
"t_vec": [
0.02730755194822325,
0.08510550127946956,
0.0
]
},
{
"fs_vec": [
-0.00010991951652758113,
3.5888901590763194e-07,
0.0
],
"n_fs": 194,
"n_ss": 185,
"name": "q0a14",
"parent_data_shape": [
1480,
1552
],
"parent_data_slice": [
[
1295,
1480,
null
],
[
0,
194,
null
]
],
"ss_vec": [
-3.5888901590763194e-07,
-0.00010991951652758113,
0.0
],
"t_vec": [
0.048626328933599486,
0.06209538423658315,
0.0
]
},
{
"fs_vec": [
-0.00010991951652758113,
3.5888901590763194e-07,
0.0
],
"n_fs": 194,
"n_ss": 185,
"name": "q0a15",
"parent_data_shape": [
1480,
1552
],
"parent_data_slice": [
[
1295,
1480,
null
],
[
194,
388,
null
]
],
"ss_vec": [
-3.5888901590763194e-07,
-0.00010991951652758113,
0.0
],
"t_vec": [
0.02697218582646699,
0.0621660628391034,
0.0
]
},
{
"fs_vec": [
-0.00010991874708711823,
5.379488036300002e-07,
0.0
],
"n_fs": 194,
"n_ss": 185,
"name": "q1a0",
"parent_data_shape": [
1480,
1552
],
"parent_data_slice": [
[
0,
185,
null
],
[
388,
582,
null
]
],
"ss_vec": [
-5.379488036300002e-07,
-0.00010991874708711823,
0.0
],
"t_vec": [
0.003919804518154398,
0.049305744862336104,
0.0
]
},
{
"fs_vec": [
-0.00010991874708711823,
5.379488036300002e-07,
0.0
],
"n_fs": 194,
"n_ss": 185,
"name": "q1a1",
"parent_data_shape": [
1480,
1552
],
"parent_data_slice": [
[
0,
185,
null
],
[
582,
776,
null
]
],
"ss_vec": [
-5.379488036300002e-07,
-0.00010991874708711823,
0.0
],
"t_vec": [
-0.0177341737088789,
0.049411707806083414,
0.0
]
},
{
"fs_vec": [
-0.00010991962644764726,
2.47979669184569e-07,
0.0
],
"n_fs": 194,
"n_ss": 185,
"name": "q1a2",
"parent_data_shape": [
1480,
1552
],
"parent_data_slice": [
[
185,
370,
null
],
[
388,
582,
null
]
],
"ss_vec": [
-2.47979669184569e-07,
-0.00010991962644764726,
0.0
],
"t_vec": [
0.003818941865475426,
0.026435556063630523,
0.0
]
},
{
"fs_vec": [
-0.00010991962644764726,
2.47979669184569e-07,
0.0
],
"n_fs": 194,
"n_ss": 185,
"name": "q1a3",
"parent_data_shape": [
1480,
1552
],
"parent_data_slice": [
[
185,
370,
null
],
[
582,
776,
null
]
],
"ss_vec": [
-2.47979669184569e-07,
-0.00010991962644764726,
0.0
],
"t_vec": [
-0.017835190249650454,
0.02648447049305745,
0.0
]
},
{
"fs_vec": [
-4.824391702354048e-07,
-0.00010991885700718436,
0.0
],
"n_fs": 194,
"n_ss": 185,
"name": "q1a4",
"parent_data_shape": [
1480,
1552
],
"parent_data_slice": [
[
370,
555,
null
],
[
388,
582,
null
]
],
"ss_vec": [
0.00010991885700718436,
-4.824391702354048e-07,
0.0
],
"t_vec": [
-0.039216621672719595,
0.0958047907561621,
0.0
]
},
{
"fs_vec": [
-4.824391702354048e-07,
-0.00010991885700718436,
0.0
],
"n_fs": 194,
"n_ss": 185,
"name": "q1a5",
"parent_data_shape": [
1480,
1552
],
"parent_data_slice": [
[
370,
555,
null
],
[
582,
776,
null
]
],
"ss_vec": [
0.00010991885700718436,
-4.824391702354048e-07,
0.0
],
"t_vec": [
-0.03931170252992024,
0.07415086748916189,
0.0
]
},
{
"fs_vec": [
-3.6196677775921343e-07,
-0.00010991929668744888,
0.0
],
"n_fs": 194,
"n_ss": 185,
"name": "q1a6",
"parent_data_shape": [
1480,
1552
],
"parent_data_slice": [
[
555,
740,
null
],
[
388,
582,
null
]
],
"ss_vec": [
0.00010991929668744888,
-3.6196677775921343e-07,
0.0
],
"t_vec": [
-0.016389741380068414,
0.0957362006348983,
0.0
]
},
{
"fs_vec": [
-3.6196677775921343e-07,
-0.00010991929668744888,
0.0
],
"n_fs": 194,
"n_ss": 185,
"name": "q1a7",
"parent_data_shape": [
1480,
1552
],
"parent_data_slice": [
[
555,
740,
null
],
[
582,
776,
null
]
],
"ss_vec": [
0.00010991929668744888,
-3.6196677775921343e-07,
0.0
],
"t_vec": [
-0.016461079502985428,
0.07408216744783194,
0.0
]
},
{
"fs_vec": [
0.00010991951652758113,
-3.149209894564672e-07,
0.0
],
"n_fs": 194,
"n_ss": 185,
"name": "q1a8",
"parent_data_shape": [
1480,
1552
],
"parent_data_slice": [
[
740,
925,
null
],
[
388,
582,
null
]
],
"ss_vec": [
3.149209894564672e-07,
0.00010991951652758113,
0.0
],
"t_vec": [
-0.08577326568119661,
0.05296828146571812,
0.0
]
},
{
"fs_vec": [
0.00010991951652758113,
-3.149209894564672e-07,
0.0
],
"n_fs": 194,
"n_ss": 185,
"name": "q1a9",
"parent_data_shape": [
1480,
1552
],
"parent_data_slice": [
[
740,
925,
null
],
[
582,
776,
null
]
],
"ss_vec": [
3.149209894564672e-07,
0.00010991951652758113,
0.0
],
"t_vec": [
-0.06411912257406414,
0.05290628654842198,
0.0
]
},
{
"fs_vec": [
0.00010991940660751501,
-3.913154354153659e-07,
0.0
],
"n_fs": 194,
"n_ss": 185,
"name": "q1a10",
"parent_data_shape": [
1480,
1552
],
"parent_data_slice": [
[
925,
1110,
null
],
[
388,
582,
null
]
],
"ss_vec": [
3.913154354153659e-07,
0.00010991940660751501,
0.0
],
"t_vec": [
-0.08577601368284983,
0.07595410617399027,
0.0
]
},
{
"fs_vec": [
0.00010991940660751501,
-3.913154354153659e-07,
0.0
],
"n_fs": 194,
"n_ss": 185,
"name": "q1a11",
"parent_data_shape": [
1480,
1552
],
"parent_data_slice": [
[
925,
1110,
null
],
[
582,
776,
null
]
],
"ss_vec": [
3.913154354153659e-07,
0.00010991940660751501,
0.0
],
"t_vec": [
-0.06412187057571733,
0.0758770522076346,
0.0
]
},
{
"fs_vec": [
-2.7183232353432583e-07,
-0.00010991962644764726,
0.0
],
"n_fs": 194,
"n_ss": 185,
"name": "q1a12",
"parent_data_shape": [
1480,
1552
],
"parent_data_slice": [
[
1110,
1295,
null
],
[
388,
582,
null
]
],
"ss_vec": [
0.00010991962644764726,
-2.7183232353432583e-07,
0.0
],
"t_vec": [
-0.08352408128808729,
0.049404672921851224,
0.0
]
},
{
"fs_vec": [
-2.7183232353432583e-07,
-0.00010991962644764726,
0.0
],
"n_fs": 194,
"n_ss": 185,
"name": "q1a13",
"parent_data_shape": [
1480,
1552
],
"parent_data_slice": [
[
1110,
1295,
null
],
[
582,
776,
null
]
],
"ss_vec": [
0.00010991962644764726,
-2.7183232353432583e-07,
0.0
],
"t_vec": [
-0.0835776123602916,
0.027750529814718736,
0.0
]
},
{
"fs_vec": [
-5.036537429980918e-07,
-0.00010991885700718436,
0.0
],
"n_fs": 194,
"n_ss": 185,
"name": "q1a14",
"parent_data_shape": [
1480,
1552
],
"parent_data_slice": [
[
1295,
1480,
null
],
[
388,
582,
null
]
],
"ss_vec": [
0.00010991885700718436,
-5.036537429980918e-07,
0.0
],
"t_vec": [
-0.0606806030654508,
0.04936565129837582,
0.0
]
},
{
"fs_vec": [
-5.036537429980918e-07,
-0.00010991885700718436,
0.0
],
"n_fs": 194,
"n_ss": 185,
"name": "q1a15",
"parent_data_shape": [
1480,
1552
],
"parent_data_slice": [
[
1295,
1480,
null
],
[
582,
776,
null
]
],
"ss_vec": [
0.00010991885700718436,
-5.036537429980918e-07,
0.0
],
"t_vec": [
-0.06077986088516431,
0.02771161811130945,
0.0
]
},
{
"fs_vec": [
2.609502369876625e-07,
-0.00010991984628777952,
0.0
],
"n_fs": 194,
"n_ss": 185,
"name": "q2a0",
"parent_data_shape": [
1480,
1552
],
"parent_data_slice": [
[
0,
185,
null
],
[
776,
970,
null
]
],
"ss_vec": [
0.00010991984628777952,
2.609502369876625e-07,
0.0
],
"t_vec": [
-0.048300306017464094,
0.00445811605800262,
0.0
]
},
{
"fs_vec": [
2.609502369876625e-07,
-0.00010991984628777952,
0.0
],
"n_fs": 194,
"n_ss": 185,
"name": "q2a1",
"parent_data_shape": [
1480,
1552
],
"parent_data_slice": [
[
0,
185,
null
],
[
970,
1164,
null
]
],
"ss_vec": [
0.00010991984628777952,
2.609502369876625e-07,
0.0
],
"t_vec": [
-0.048248863426516235,
-0.017196114985182774,
0.0
]
},
{
"fs_vec": [
-1.1772439082299349e-07,
-0.00010991984628777952,
0.0
],
"n_fs": 194,
"n_ss": 185,
"name": "q2a2",
"parent_data_shape": [
1480,
1552
],
"parent_data_slice": [
[
185,
370,
null
],
[
776,
970,
null
]
],
"ss_vec": [
0.00010991984628777952,
-1.1772439082299349e-07,
0.0
],
"t_vec": [
-0.02550365374299809,
0.004428162839982764,
0.0
]
},
{
"fs_vec": [
-1.1772439082299349e-07,
-0.00010991984628777952,
0.0
],
"n_fs": 194,
"n_ss": 185,
"name": "q2a3",
"parent_data_shape": [
1480,
1552
],
"parent_data_slice": [
[
185,
370,
null
],
[
970,
1164,
null
]
],
"ss_vec": [
0.00010991984628777952,
-1.1772439082299349e-07,
0.0
],
"t_vec": [
-0.025526846876951077,
-0.017226013243169566,
0.0
]
},
{
"fs_vec": [
0.00010992006612791177,
-6.62817998751308e-08,
0.0
],
"n_fs": 194,
"n_ss": 185,
"name": "q2a4",
"parent_data_shape": [
1480,
1552
],
"parent_data_slice": [
[
370,
555,
null
],
[
776,
970,
null
]
],
"ss_vec": [
6.62817998751308e-08,
0.00010992006612791177,
0.0
],
"t_vec": [
-0.09493224527123875,
-0.0382305287594861,
0.0
]
},
{
"fs_vec": [
0.00010992006612791177,
-6.62817998751308e-08,
0.0
],
"n_fs": 194,
"n_ss": 185,
"name": "q2a5",
"parent_data_shape": [
1480,
1552
],
"parent_data_slice": [
[
370,
555,
null
],
[
970,
1164,
null
]
],
"ss_vec": [
6.62817998751308e-08,
0.00010992006612791177,
0.0
],
"t_vec": [
-0.07327799224404014,
-0.03824360924735532,
0.0
]
},
{
"fs_vec": [
0.00010991984628777952,
7.485556503310791e-08,
0.0
],
"n_fs": 194,
"n_ss": 185,
"name": "q2a6",
"parent_data_shape": [
1480,
1552
],
"parent_data_slice": [
[
555,
740,
null
],
[
776,
970,
null
]
],
"ss_vec": [
-7.485556503310791e-08,
0.00010991984628777952,
0.0
],
"t_vec": [
-0.09491454814059215,
-0.01588872571865739,
0.0
]
},
{
"fs_vec": [
0.00010991984628777952,
7.485556503310791e-08,
0.0
],
"n_fs": 194,
"n_ss": 185,
"name": "q2a7",
"parent_data_shape": [
1480,
1552
],
"parent_data_slice": [
[
555,
740,
null
],
[
970,
1164,
null
]
],
"ss_vec": [
-7.485556503310791e-08,
0.00010991984628777952,
0.0
],
"t_vec": [
-0.07326040503345967,
-0.015873886509730123,
0.0
]
},
{
"fs_vec": [
1.74443144944996e-07,
0.00010991984628777952,
0.0
],
"n_fs": 194,
"n_ss": 185,
"name": "q2a8",
"parent_data_shape": [
1480,
1552
],
"parent_data_slice": [
[
740,
925,
null
],
[
776,
970,
null
]
],
"ss_vec": [
-0.00010991984628777952,
1.74443144944996e-07,
0.0
],
"t_vec": [
-0.05194305700894309,
-0.08488873890906533,
0.0
]
},
{
"fs_vec": [
1.74443144944996e-07,
0.00010991984628777952,
0.0
],
"n_fs": 194,
"n_ss": 185,
"name": "q2a9",
"parent_data_shape": [
1480,
1552
],
"parent_data_slice": [
[
740,
925,
null
],
[
970,
1164,
null
]
],
"ss_vec": [
-0.00010991984628777952,
1.74443144944996e-07,
0.0
],
"t_vec": [
-0.05190865202824506,
-0.06323459580193283,
0.0
]
},
{
"fs_vec": [
2.4402254680396414e-07,
0.00010991973636771339,
0.0
],
"n_fs": 194,
"n_ss": 185,
"name": "q2a10",
"parent_data_shape": [
1480,
1552
],
"parent_data_slice": [
[
925,
1110,
null
],
[
776,
970,
null
]
],
"ss_vec": [
-0.00010991973636771339,
2.4402254680396414e-07,
0.0
],
"t_vec": [
-0.07449766529779545,
-0.08478002796366482,
0.0
]
},
{
"fs_vec": [
2.4402254680396414e-07,
0.00010991973636771339,
0.0
],
"n_fs": 194,
"n_ss": 185,
"name": "q2a11",
"parent_data_shape": [
1480,
1552
],
"parent_data_slice": [
[
925,
1110,
null
],
[
970,
1164,
null
]
],
"ss_vec": [
-0.00010991973636771339,
2.4402254680396414e-07,
0.0
],
"t_vec": [
-0.07444963022889754,
-0.06312577493646619,
0.0
]
},
{
"fs_vec": [
0.00010992017604797789,
1.1332758817787703e-07,
0.0
],
"n_fs": 194,
"n_ss": 185,
"name": "q2a12",
"parent_data_shape": [
1480,
1552
],
"parent_data_slice": [
[
1110,
1295,
null
],
[
776,
970,
null
]
],
"ss_vec": [
-1.1332758817787703e-07,
0.00010992017604797789,
0.0
],
"t_vec": [
-0.04784149966144619,
-0.08273639409421468,
0.0
]
},
{
"fs_vec": [
0.00010992017604797789,
1.1332758817787703e-07,
0.0
],
"n_fs": 194,
"n_ss": 185,
"name": "q2a13",
"parent_data_shape": [
1480,
1552
],
"parent_data_slice": [
[
1110,
1295,
null
],
[
970,
1164,
null
]
],
"ss_vec": [
-1.1332758817787703e-07,
0.00010992017604797789,
0.0
],
"t_vec": [
-0.026187246634247572,
-0.08271408032079072,
0.0
]
},
{
"fs_vec": [
0.00010992028596804404,
-1.5828489522419295e-08,
0.0
],
"n_fs": 194,
"n_ss": 185,
"name": "q2a14",
"parent_data_shape": [
1480,
1552
],
"parent_data_slice": [
[
1295,
1480,
null
],
[
776,
970,
null
]
],
"ss_vec": [
1.5828489522419295e-08,
0.00010992028596804404,
0.0
],
"t_vec": [
-0.04801473368566378,
-0.060088353749153604,
0.0
]
},
{
"fs_vec": [
0.00010992028596804404,
-1.5828489522419295e-08,
0.0
],
"n_fs": 194,
"n_ss": 185,
"name": "q2a15",
"parent_data_shape": [
1480,
1552
],
"parent_data_slice": [
[
1295,
1480,
null
],
[
970,
1164,
null
]
],
"ss_vec": [
1.5828489522419295e-08,
0.00010992028596804404,
0.0
],
"t_vec": [
-0.026360370738399034,
-0.06009143151100519,
0.0
]
},
{
"fs_vec": [
0.00010992006612791177,
-1.0046694044091136e-07,
0.0
],
"n_fs": 194,
"n_ss": 185,
"name": "q3a0",
"parent_data_shape": [
1480,
1552
],
"parent_data_slice": [
[
0,
185,
null
],
[
1164,
1358,
null
]
],
"ss_vec": [
1.0046694044091136e-07,
0.00010992006612791177,
0.0
],
"t_vec": [
-0.0037031410758096707,
-0.04753845003913154,
0.0
]
},
{
"fs_vec": [
0.00010992006612791177,
-1.0046694044091136e-07,
0.0
],
"n_fs": 194,
"n_ss": 185,
"name": "q3a1",
"parent_data_shape": [
1480,
1552
],
"parent_data_slice": [
[
0,
185,
null
],
[
1358,
1552,
null
]
],
"ss_vec": [
1.0046694044091136e-07,
0.00010992006612791177,
0.0
],
"t_vec": [
0.017951045999349272,
-0.047558235651034564,
0.0
]
},
{
"fs_vec": [
0.00010991995620784564,
-1.858748318222988e-07,
0.0
],
"n_fs": 194,
"n_ss": 185,
"name": "q3a2",
"parent_data_shape": [
1480,
1552
],
"parent_data_slice": [
[
185,
370,
null
],
[
1164,
1358,
null
]
],
"ss_vec": [
1.858748318222988e-07,
0.00010991995620784564,
0.0
],
"t_vec": [
-0.003678365092904439,
-0.024978565587105053,
0.0
]
},
{
"fs_vec": [
0.00010991995620784564,
-1.858748318222988e-07,
0.0
],
"n_fs": 194,
"n_ss": 185,
"name": "q3a3",
"parent_data_shape": [
1480,
1552
],
"parent_data_slice": [
[
185,
370,
null
],
[
1358,
1552,
null
]
],
"ss_vec": [
1.858748318222988e-07,
0.00010991995620784564,
0.0
],
"t_vec": [
0.01797588793429418,
-0.02501516896912565,
0.0
]
},
{
"fs_vec": [
5.45753128325082e-07,
0.00010991874708711823,
0.0
],
"n_fs": 194,
"n_ss": 185,
"name": "q3a4",
"parent_data_shape": [
1480,
1552
],
"parent_data_slice": [
[
370,
555,
null
],
[
1164,
1358,
null
]
],
"ss_vec": [
-0.00010991874708711823,
5.45753128325082e-07,
0.0
],
"t_vec": [
0.03927949595054476,
-0.09411290109832128,
0.0
]
},
{
"fs_vec": [
5.45753128325082e-07,
0.00010991874708711823,
0.0
],
"n_fs": 194,
"n_ss": 185,
"name": "q3a5",
"parent_data_shape": [
1480,
1552
],
"parent_data_slice": [
[
370,
555,
null
],
[
1358,
1552,
null
]
],
"ss_vec": [
-0.00010991874708711823,
5.45753128325082e-07,
0.0
],
"t_vec": [
0.03938699777521786,
-0.07245886791125493,
0.0
]
},
{
"fs_vec": [
-2.0774892498175325e-08,
0.00010991995620784564,
0.0
],
"n_fs": 194,
"n_ss": 185,
"name": "q3a6",
"parent_data_shape": [
1480,
1552
],
"parent_data_slice": [
[
555,
740,
null
],
[
1164,
1358,
null
]
],
"ss_vec": [
-0.00010991995620784564,
-2.0774892498175325e-08,
0.0
],
"t_vec": [
0.01712950342510926,
-0.09400781751510301,
0.0
]
},
{
"fs_vec": [
-2.0774892498175325e-08,
0.00010991995620784564,
0.0
],
"n_fs": 194,
"n_ss": 185,
"name": "q3a7",
"parent_data_shape": [
1480,
1552
],
"parent_data_slice": [
[
555,
740,
null
],
[
1358,
1552,
null
]
],
"ss_vec": [
-0.00010991995620784564,
-2.0774892498175325e-08,
0.0
],
"t_vec": [
0.0171253264625964,
-0.07235356448790439,
0.0
]
},
{
"fs_vec": [
-0.00010991775780652308,
6.807349695301576e-07,
0.0
],
"n_fs": 194,
"n_ss": 185,
"name": "q3a8",
"parent_data_shape": [
1480,
1552
],
"parent_data_slice": [
[
740,
925,
null
],
[
1164,
1358,
null
]
],
"ss_vec": [
-6.807349695301576e-07,
-0.00010991775780652308,
0.0
],
"t_vec": [
0.086027950474415,
-0.05117306694571707,
0.0
]
},
{
"fs_vec": [
-0.00010991775780652308,
6.807349695301576e-07,
0.0
],
"n_fs": 194,
"n_ss": 185,
"name": "q3a9",
"parent_data_shape": [
1480,
1552
],
"parent_data_slice": [
[
740,
925,
null
],
[
1358,
1552,
null
]
],
"ss_vec": [
-6.807349695301576e-07,
-0.00010991775780652308,
0.0
],
"t_vec": [
0.06437424704754702,
-0.05103896446504101,
0.0
]
},
{
"fs_vec": [
-0.00010991676852592794,
8.211028939755009e-07,
0.0
],
"n_fs": 194,
"n_ss": 185,
"name": "q3a10",
"parent_data_shape": [
1480,
1552
],
"parent_data_slice": [
[
925,
1110,
null
],
[
1164,
1358,
null
]
],
"ss_vec": [
-8.211028939755009e-07,
-0.00010991676852592794,
0.0
],
"t_vec": [
0.08585053948768455,
-0.07385188490929395,
0.0
]
},
{
"fs_vec": [
-0.00010991676852592794,
8.211028939755009e-07,
0.0
],
"n_fs": 194,
"n_ss": 185,
"name": "q3a11",
"parent_data_shape": [
1480,
1552
],
"parent_data_slice": [
[
925,
1110,
null
],
[
1358,
1552,
null
]
],
"ss_vec": [
-8.211028939755009e-07,
-0.00010991676852592794,
0.0
],
"t_vec": [
0.0641969459808827,
-0.0736901924920198,
0.0
]
},
{
"fs_vec": [
6.265443769290971e-07,
0.00010991830740685373,
0.0
],
"n_fs": 194,
"n_ss": 185,
"name": "q3a12",
"parent_data_shape": [
1480,
1552
],
"parent_data_slice": [
[
1110,
1295,
null
],
[
1164,
1358,
null
]
],
"ss_vec": [
-0.00010991830740685373,
6.265443769290971e-07,
0.0
],
"t_vec": [
0.08361707366403151,
-0.04754163772104925,
0.0
]
},
{
"fs_vec": [
6.265443769290971e-07,
0.00010991830740685373,
0.0
],
"n_fs": 194,
"n_ss": 185,
"name": "q3a13",
"parent_data_shape": [
1480,
1552
],
"parent_data_slice": [
[
1110,
1295,
null
],
[
1358,
1552,
null
]
],
"ss_vec": [
-0.00010991830740685373,
6.265443769290971e-07,
0.0
],
"t_vec": [
0.08374040397822703,
-0.025887714454049013,
0.0
]
},
{
"fs_vec": [
7.012900218960772e-08,
0.00010991995620784564,
0.0
],
"n_fs": 194,
"n_ss": 185,
"name": "q3a14",
"parent_data_shape": [
1480,
1552
],
"parent_data_slice": [
[
1295,
1480,
null
],
[
1164,
1358,
null
]
],
"ss_vec": [
-0.00010991995620784564,
7.012900218960772e-08,
0.0
],
"t_vec": [
0.06094166322250459,
-0.04752196202921235,
0.0
]
},
{
"fs_vec": [
7.012900218960772e-08,
0.00010991995620784564,
0.0
],
"n_fs": 194,
"n_ss": 185,
"name": "q3a15",
"parent_data_shape": [
1480,
1552
],
"parent_data_slice": [
[
1295,
1480,
null
],
[
1358,
1552,
null
]
],
"ss_vec": [
-0.00010991995620784564,
7.012900218960772e-08,
0.0
],
"t_vec": [
0.06095551315083671,
-0.025867709002013732,
0.0
]
}
]